   2300.0000000000000        3.6717303355920964E-003
   2386.0000000000000        3.1195725848587770E-003
   2472.0000000000000        2.7089363208808782E-003
   2558.0000000000000        2.3248183830075083E-003
   2644.0000000000000        2.0101348256166937E-003
   2730.0000000000000        1.7625420836890721E-003
   2816.0000000000000        1.5251252257514273E-003
   2902.0000000000000        1.3492494813850764E-003
   2988.0000000000000        1.1900755206018963E-003
   3074.0000000000000        1.0476026588005589E-003
   3160.0000000000000        9.2257382459173343E-004
   3246.0000000000000        8.3183342695240911E-004
   3332.0000000000000        7.3469222473189618E-004
   3418.0000000000000        6.5220375148539254E-004
   3504.0000000000000        5.9478792758845662E-004
   3590.0000000000000        5.3424644619113465E-004
   3676.0000000000000        4.7231059145474150E-004
   3762.0000000000000        4.4063984843219786E-004
   3848.0000000000000        3.9549309903125869E-004
   3934.0000000000000        3.5452869903519497E-004
   4020.0000000000000        3.2536785736095108E-004
   4106.0000000000000        2.9917501952312318E-004
   4192.0000000000000        2.7321909919814211E-004
   4278.0000000000000        2.4989174945020927E-004
   4364.0000000000000        2.2733603857045674E-004
   4450.0000000000000        2.1146604097374604E-004
   4536.0000000000000        1.9311450028561386E-004
   4622.0000000000000        1.7487300806004827E-004
   4708.0000000000000        1.6328016641765724E-004
   4794.0000000000000        1.4881212510953586E-004
   4880.0000000000000        1.4150064777418604E-004
   4966.0000000000000        1.2970710736355694E-004
   5052.0000000000000        1.1890477324339237E-004
   5138.0000000000000        1.1011414962616967E-004
   5224.0000000000000        1.0407658186259809E-004
   5310.0000000000000        9.8235582682997200E-005
   5396.0000000000000        9.0882185099168159E-005
   5482.0000000000000        8.5201847385318042E-005
   5568.0000000000000        7.8626496238522349E-005
   5654.0000000000000        7.2784710780227359E-005
   5740.0000000000000        6.9650377712968093E-005
   5826.0000000000000        6.5311572357187211E-005
   5912.0000000000000        5.9930918127392869E-005
   5998.0000000000000        5.7131158708254234E-005
   6084.0000000000000        5.3832180092069169E-005
   6170.0000000000000        5.1168659874336497E-005
   6256.0000000000000        4.7428841595783840E-005
   6342.0000000000000        4.4837013483628044E-005
   6428.0000000000000        4.2258388814119458E-005
   6514.0000000000000        3.9543376926530024E-005
   6600.0000000000000        3.8012259034240429E-005
