   2400.0000000000000        2.5586309305780028E-003
   2502.7199999999998        1.9516209168181386E-003
   2605.4399999999996        1.5200826204371455E-003
   2708.1599999999994        1.1818281567747991E-003
   2810.8799999999992        9.2970668416087518E-004
   2913.5999999999990        7.4495378189885645E-004
   3016.3199999999988        5.9964271849208500E-004
   3119.0399999999986        4.7893953272350854E-004
   3221.7599999999984        3.9413264758978968E-004
   3324.4799999999982        3.2460562214315270E-004
   3427.1999999999980        2.6609303904957744E-004
   3529.9199999999978        2.2123718968687916E-004
   3632.6399999999976        1.8228789979287820E-004
   3735.3599999999974        1.5449623023218377E-004
   3838.0799999999972        1.3110127765163725E-004
   3940.7999999999970        1.1004111958540543E-004
   4043.5199999999968        9.2560623290193338E-005
   4146.2399999999971        8.0077136480997726E-005
   4248.9599999999973        6.7521992941445489E-005
   4351.6799999999976        5.9273091600627765E-005
   4454.3999999999978        5.0196167568390402E-005
   4557.1199999999981        4.3637000520405566E-005
   4659.8399999999983        3.7764659741439762E-005
   4762.5599999999986        3.2681607080841930E-005
   4865.2799999999988        2.9033479633910010E-005
   4967.9999999999991        2.5372295070823397E-005
   5070.7199999999993        2.2067817037339312E-005
   5173.4399999999996        1.9277266711977409E-005
   5276.1599999999999        1.7043440157892670E-005
   5378.8800000000001        1.5377809999168604E-005
   5481.6000000000004        1.3716247305704612E-005
   5584.3200000000006        1.1962681479519034E-005
   5687.0400000000009        1.0571654792163593E-005
   5789.7600000000011        9.5385717675432092E-006
   5892.4800000000014        8.5327970799606056E-006
   5995.2000000000016        7.7301801062643079E-006
   6097.9200000000019        6.8434557904234433E-006
   6200.6400000000021        6.1459842489625595E-006
   6303.3600000000024        5.5084167260441554E-006
   6406.0800000000027        5.0611738369289769E-006
   6508.8000000000029        4.4435697561605814E-006
   6611.5200000000032        4.0751256718238850E-006
   6714.2400000000034        3.7161362278346380E-006
   6816.9600000000037        3.3909575618417715E-006
   6919.6800000000039        3.0810813868005516E-006
   7022.4000000000042        2.8040368023838466E-006
   7125.1200000000044        2.5338060133558452E-006
   7227.8400000000047        2.3052515398776446E-006
   7330.5600000000049        2.1327442145863543E-006
   7433.2800000000052        1.9352863913624702E-006
   7536.0000000000055        1.7801752128405324E-006
