   300.00000000000000        1.8436458294390963E-005
   334.00000000000000        2.4200886295084397E-005
   368.00000000000000        2.9164110469336770E-005
   402.00000000000000        3.1855684107588096E-005
   436.00000000000000        3.9789443616317144E-005
   470.00000000000000        4.0449982980151552E-005
   504.00000000000000        4.1815861565724673E-005
   538.00000000000000        4.3297364642686362E-005
   572.00000000000000        3.6041965675228769E-005
   606.00000000000000        4.0021118491789265E-005
   640.00000000000000        3.9830083087546117E-005
   674.00000000000000        3.8934576152170424E-005
   708.00000000000000        3.6380114183225057E-005
   742.00000000000000        3.7615655250739794E-005
   776.00000000000000        3.7032878270046588E-005
   810.00000000000000        3.4867017566340293E-005
   844.00000000000000        3.6961143102055041E-005
   878.00000000000000        3.1342003362344846E-005
   912.00000000000000        3.1615064006076103E-005
   946.00000000000000        2.7650309585211939E-005
   980.00000000000000        2.5983477785888346E-005
   1014.0000000000000        2.4957910728339868E-005
   1048.0000000000000        2.3937725650155061E-005
   1082.0000000000000        2.0930655406154256E-005
   1116.0000000000000        2.0969568539796221E-005
   1150.0000000000000        1.9050707349721753E-005
   1184.0000000000000        2.0854762854154260E-005
   1218.0000000000000        1.6047192435151280E-005
   1252.0000000000000        1.7521075521104738E-005
   1286.0000000000000        1.6668843902298503E-005
   1320.0000000000000        1.4267964714362666E-005
   1354.0000000000000        1.3136423627935602E-005
   1388.0000000000000        1.3712244972941213E-005
   1422.0000000000000        1.2243568371525047E-005
   1456.0000000000000        1.0621529864105958E-005
   1490.0000000000000        1.0954585604554368E-005
   1524.0000000000000        9.0396639825731347E-006
   1558.0000000000000        8.1505988083593955E-006
   1592.0000000000000        6.2158406843586706E-006
   1626.0000000000000        7.2522609110146649E-006
   1660.0000000000000        3.8817800508870740E-006
   1694.0000000000000        6.3630655749909709E-006
   1728.0000000000000        5.5942497424462728E-006
   1762.0000000000000        5.0596091513860832E-006
   1796.0000000000000        5.0416476623426888E-006
   1830.0000000000000        4.5526672362104646E-006
   1864.0000000000000        3.8432461556811175E-006
   1898.0000000000000        3.6722758442914958E-006
   1932.0000000000000        3.8209084336866148E-006
   1966.0000000000000        3.0172084668974057E-006
   2000.0000000000000        2.6906352199081592E-006
