   300.00000000000000        1.5946423083870068E-005
   334.00000000000000        2.3291527698267134E-005
   368.00000000000000        2.5644707900382953E-005
   402.00000000000000        2.8927392965201296E-005
   436.00000000000000        3.1012477891826183E-005
   470.00000000000000        3.0830892263486357E-005
   504.00000000000000        4.0275250620752961E-005
   538.00000000000000        3.3600287877246655E-005
   572.00000000000000        3.6311998406619883E-005
   606.00000000000000        4.9069610580547101E-005
   640.00000000000000        4.0279174428582619E-005
   674.00000000000000        4.1099295469842353E-005
   708.00000000000000        3.8991060154264179E-005
   742.00000000000000        3.9712147845044037E-005
   776.00000000000000        4.5224886803840125E-005
   810.00000000000000        3.6484099973856286E-005
   844.00000000000000        3.2357180068472830E-005
   878.00000000000000        3.6607136385696516E-005
   912.00000000000000        4.3249924915254505E-005
   946.00000000000000        4.2118090497021822E-005
   980.00000000000000        4.1785776979176460E-005
   1014.0000000000000        3.2321445291208791E-005
   1048.0000000000000        3.3705993716877254E-005
   1082.0000000000000        2.9353169815860855E-005
   1116.0000000000000        2.6724120902406945E-005
   1150.0000000000000        2.8592415648234604E-005
   1184.0000000000000        2.3200300173195119E-005
   1218.0000000000000        2.9166708158577397E-005
   1252.0000000000000        2.5920421883312213E-005
   1286.0000000000000        3.0166647991084549E-005
   1320.0000000000000        2.4325677727922527E-005
   1354.0000000000000        2.0691930965040960E-005
   1388.0000000000000        2.8133286651525345E-005
   1422.0000000000000        2.1977784434648876E-005
   1456.0000000000000        2.6454095904596335E-005
   1490.0000000000000        2.7791465714145771E-005
   1524.0000000000000        2.0665433718192532E-005
   1558.0000000000000        1.9744996274620808E-005
   1592.0000000000000        1.9130131610500426E-005
   1626.0000000000000        1.6126619579258410E-005
   1660.0000000000000        1.6227651113503390E-005
   1694.0000000000000        1.6069959799119077E-005
   1728.0000000000000        1.9477252364253582E-005
   1762.0000000000000        1.1815345376874415E-005
   1796.0000000000000        1.0015195964884446E-005
   1830.0000000000000        8.1562756475219108E-006
   1864.0000000000000        1.4500087155156646E-005
   1898.0000000000000        1.3232368364754313E-005
   1932.0000000000000        8.8477408357184161E-006
   1966.0000000000000        1.0566428495980760E-005
   2000.0000000000000        1.0730242105394257E-005
